{
    "__name__": "search_result_universal",
    "total_results": 400,
    "total_pages": 14,
    "page": 1,
    "items": [
        {
            "id": 1001226,
            "url": "https://quizlet.com/class/1001226/",
            "name": "Genetics Test US3 ",
            "set_count": 1,
            "user_count": 8,
            "created_date": 1397160836,
            "has_access": false,
            "access_level": "uninvolved",
            "role_level": -3,
            "description": "ALERT ALERT ALERT ALERT ALERT ALERT ALERT ALERT ALERT ALERT\r\nREMINDER REMINDER REMINDER REMINDER REMINDER REMINDER REMINDER\r\nTEST TEST TEST TEST TEST TEST TEST TEST TEST TEST TEST TEST",
            "admin_only": false,
            "is_public": false,
            "has_password": false,
            "member_add_sets": true,
            "school": {
                "name": "The Mirman School",
                "id": 76026,
                "city": "Los Angeles",
                "state": "CA",
                "country": "United States",
                "country_code": "us",
                "latitude": 34.129551,
                "longitude": -118.484604
            },
            "members_sample": [],
            "type": "group"
        },
        {
            "id": 154871,
            "url": "https://quizlet.com/class/154871/",
            "name": "Tests",
            "set_count": 12,
            "user_count": 3,
            "created_date": 1327876896,
            "has_access": false,
            "access_level": "uninvolved",
            "role_level": -3,
            "description": "social studies test 1-30-12. science test 2-13-12 \nspanish test 2-15-12 verb quiz 2-28-12 \nfun tests anytime! science test 5-30-12 social studies test 6-7-12",
            "admin_only": false,
            "is_public": false,
            "has_password": false,
            "member_add_sets": true,
            "members_sample": [],
            "type": "group"
        },
        {
            "id": 1838574,
            "url": "https://quizlet.com/class/1838574/",
            "name": "GR-821st Promotion Testing",
            "set_count": 7,
            "user_count": 22,
            "created_date": 1441974669,
            "has_access": false,
            "access_level": "uninvolved",
            "role_level": -3,
            "description": "This is the hub for ALL GR-821st Promotion Testing. Cadets may use this for studying and the test will be taken here. Cadets must pass with a 85% to promote on a Quia test. Cadet can only test to promote once a semester. All testing goes through the Squadron Commanders. First Test date is 5 Feb 2016 during seminar. Please make sure to sign up on the sheet on the white board.",
            "admin_only": false,
            "is_public": false,
            "has_password": false,
            "member_add_sets": true,
            "school": {
                "name": "Ramstein American High School",
                "id": 948,
                "city": "Ramstein",
                "state": null,
                "country": "Germany",
                "country_code": "de",
                "latitude": 49.44508,
                "longitude": 7.55644
            },
            "members_sample": [],
            "type": "group"
        },
        {
            "username": "test_",
            "account_type": "free",
            "profile_image": "https://quizlet.com/a/i/animals/17.Zupv.jpg",
            "id": 10794916,
            "type": "user"
        },
        {
            "id": 2267991,
            "url": "https://quizlet.com/class/2267991/",
            "name": "TEAS V Class http://teasv.weebly.com ** http://www.ipetitions.com/petition/eliminate-teas-nursing-school-test",
            "set_count": 8,
            "user_count": 29,
            "created_date": 1450212331,
            "has_access": false,
            "access_level": "uninvolved",
            "role_level": -3,
            "description": "This section includes two comprehensive practice tests. Keep in mind that the proctored TEAS has a total of 170 items, 20 of which are un-scored, pretest items. The total time allowed for the proctored TEAS is 209 minutes. Click the link in the title of this description to access images connected to the questions in this class.\r\nSince these comprehensive practice tests do not include the 20 items used for pretest purposes, the time needed to complete each section is less than on the proctored test. Below is a recommended time allotment for taking these two practice tests. I wish you the best of luck.\r\nPassing scores for the Nursing program are as follows.\r\nReading 69%, Math63%, Science 45%, and English 60%.\r\n\r\nREADING - 42 items - 51 minutes\r\nMATHEMATICS - 30 items - 45 minutes\r\nSCIENCE - 48 items - 59 minutes\r\nENGLISH - 30 items - 30 minutes\r\nTOTAL - 150 items - 185 minutes\r\nIN LIGHT OF A RECENT EVENT I WOULD LIKE TO SHARE WITH EVERYONE MY RECENT EXPERIENCE WITH THE TEAS V EXAM. IF YOU COULD PLEASE SIGN THE PETITION ATTACHED TO THE TITLE OF THIS CLASS to eliminate the TEAS exam entirely. HOPEFULLY WE CAN GET AROUND HAVING TO REPROVE OURSELVES AS COMPETENT HUMAN BEINGS. FEBRUARY 2016 I TOOK THE TEAS V EXAM AND ON THE READING SECTION I SHOULD HAVE RECEIVED A 71% BUT MY ADJUSTED SCORE WAS 66%. AFTER CONTACTING ATI I WAS INFORMED THAT THE REASONING FOR MY SCORES WAS DUE TO HAVING ANSWERED QUESTIONS THAT WERE WORTH LESS THAN OTHERS. I FEEL THIS IS EXTREAMLY UNFAIR, MISLEADING AND FRAUDULENT ON ATI'S BEHALF. NO ONE SHOULD HAVE TO PAY $55 TO TAKE A TEST THAT IS WEIGHTED SO YOU ARE MORE LIKELY TO FAIL.",
            "admin_only": true,
            "is_public": false,
            "has_password": false,
            "member_add_sets": true,
            "school": {
                "name": "Sinclair Community College",
                "id": 12403,
                "city": "Dayton",
                "state": "OH",
                "country": "United States",
                "country_code": "us",
                "latitude": 39.76057,
                "longitude": -84.18534
            },
            "members_sample": [],
            "type": "group"
        },
        {
            "id": 940193,
            "url": "https://quizlet.com/class/940193/",
            "name": "Vocabulary 2014 (Test Prep)",
            "set_count": 11,
            "user_count": 1,
            "created_date": 1390945735,
            "has_access": false,
            "access_level": "uninvolved",
            "role_level": -3,
            "description": "Karah, you really gotta work on the vocabs... I'm telling you because I have taken more IOWA's, some kind of IQ tests and psychology tests than you.... you have to listen to me.... Every test examines how you use or understand the concept of the vocabulary except math. you might want to cram these tests vocabs but the reality is you cannot cram. So work hard, diligently, regularly, and wisely. You are gonna cry while you are taking the test if you don't know any vocab. IOWA's are tough. Also, I am not a free person who always works for you.",
            "admin_only": false,
            "is_public": false,
            "has_password": false,
            "member_add_sets": true,
            "school": {
                "name": "Hill Middle School",
                "id": 402165,
                "city": "Naperville",
                "state": "IL",
                "country": "United States",
                "country_code": "us",
                "latitude": 41.7902699,
                "longitude": -88.1978927
            },
            "members_sample": [],
            "type": "group"
        },
        {
            "id": 1100250,
            "url": "https://quizlet.com/class/1100250/",
            "name": "HSK Level 4-Chinese Test Prep",
            "set_count": 97,
            "user_count": 22,
            "created_date": 1409544149,
            "has_access": false,
            "access_level": "uninvolved",
            "role_level": -3,
            "description": "Chinese Proficiency Test (HSK); HSK Speaking Test; Youth Chinese Test; Business Chinese Test; AP Chinese\r\nHow to pass HSK4 by learning 600 HSK4 Chinese words? To get know more on my YouTube channel \"Xiao Min https://goo.gl/msHmxb\"\r\nThis flash cards class is for my online students.\r\nGet access: https://goo.gl/fA0em1\r\n2015/3 added 600 HSK4 words in random order, 6 sets, 100 words per set.\r\n2015/1/1 I have recorded my own voice for those words not clear. Hope you find it's helpful :)\r\n( Being updated...)\r\nCopy right \u00a9 2015 - XM Mandarin Online - All Rights Reserved. Reproduction in whole or in part without written permission is prohibited.",
            "admin_only": true,
            "is_public": false,
            "has_password": false,
            "member_add_sets": true,
            "school": {
                "name": "XM Mandarin Online",
                "id": 526929,
                "city": "Beijing",
                "state": null,
                "country": "China",
                "country_code": "cn",
                "latitude": 39.90403,
                "longitude": 116.407526
            },
            "members_sample": [],
            "type": "group"
        },
        {
            "username": "Test-",
            "account_type": "free",
            "profile_image": "https://quizlet.com/a/i/animals/27.Bxg4.jpg",
            "id": 21495176,
            "type": "user"
        },
        {
            "id": 2075867,
            "url": "https://quizlet.com/class/2075867/",
            "name": "TEST FRENCH TWO 1ST QTR",
            "set_count": 11,
            "user_count": 10,
            "created_date": 1445698472,
            "has_access": false,
            "access_level": "uninvolved",
            "role_level": -3,
            "description": "This test set is for French II students. You may take these tests over and over until you achieve the grade you want.\r\n\r\nPlease do them in order. For example, start with Fama page 1 before moving on to Fama page 2. If you are reading Pauvre Anne, see the Pauvre Anne Quizlets in the French I test and take them in order. \r\n\r\nYou determine your final grade by practicing and retaking the tests as many times as you want until you achieve the grade you desire in each set.",
            "admin_only": false,
            "is_public": false,
            "has_password": false,
            "member_add_sets": true,
            "school": {
                "name": "Camden, Maine",
                "id": 371471,
                "city": "",
                "state": null,
                "country": "",
                "country_code": null,
                "latitude": 44.2199925,
                "longitude": -69.1290618
            },
            "members_sample": [],
            "type": "group"
        },
        {
            "id": 1731897,
            "url": "https://quizlet.com/class/1731897/",
            "name": "(Masters Test)Herding Group Standards, Identification ",
            "set_count": 30,
            "user_count": 10,
            "created_date": 1440224788,
            "has_access": false,
            "access_level": "uninvolved",
            "role_level": -3,
            "description": "Please note these are not the NDGAA tests nor am I part of the NDGAA organization. This is just stuff I used to help me study for the testing. Here are all the groups in a flash card type situation. When doing tests you can unclick the spelling portion as its not on the NDGAA tests unless you are weird like me and just want to know how to spell them. I hope you enjoy them. If you have any suggestions or make some flash cards for yourself to study please share. Thanks Kat",
            "admin_only": false,
            "is_public": false,
            "has_password": false,
            "member_add_sets": true,
            "school": {
                "name": "Kats Study Group",
                "id": 590129,
                "city": "Tri Cities",
                "state": "WA",
                "country": "United States",
                "country_code": "us",
                "latitude": 47.7510741,
                "longitude": -120.7401386
            },
            "members_sample": [],
            "type": "group"
        },
        {
            "id": 1731907,
            "url": "https://quizlet.com/class/1731907/",
            "name": "(Masters Test) Working Dog Group Standards and Identification",
            "set_count": 31,
            "user_count": 5,
            "created_date": 1440225121,
            "has_access": false,
            "access_level": "uninvolved",
            "role_level": -3,
            "description": "Please note these are not the NDGAA tests nor am I part of the NDGAA organization. This is just stuff I used to help me study for the testing. Here are all the groups in a flash card type situation. When doing tests you can unclick the spelling portion as its not on the NDGAA tests unless you are weird like me and just want to know how to spell them. I hope you enjoy them. If you have any suggestions or make some flash cards for yourself to study please share. Thanks Kat",
            "admin_only": false,
            "is_public": false,
            "has_password": false,
            "member_add_sets": true,
            "school": {
                "name": "Kats Study Group",
                "id": 590129,
                "city": "Tri Cities",
                "state": "WA",
                "country": "United States",
                "country_code": "us",
                "latitude": 47.7510741,
                "longitude": -120.7401386
            },
            "members_sample": [],
            "type": "group"
        },
        {
            "id": 1731913,
            "url": "https://quizlet.com/class/1731913/",
            "name": "(Masters Test) Toy Group Standards, indentification ",
            "set_count": 23,
            "user_count": 6,
            "created_date": 1440225791,
            "has_access": false,
            "access_level": "uninvolved",
            "role_level": -3,
            "description": "Please note these are not the NDGAA tests nor am I part of the NDGAA organization. This is just stuff I used to help me study for the testing. Here are all the groups in a flash card type situation. When doing tests you can unclick the spelling portion as its not on the NDGAA tests unless you are weird like me and just want to know how to spell them. I hope you enjoy them. If you have any suggestions or make some flash cards for yourself to study please share. Thanks Kat",
            "admin_only": false,
            "is_public": false,
            "has_password": false,
            "member_add_sets": true,
            "school": {
                "name": "Kats Study Group",
                "id": 590129,
                "city": "Tri Cities",
                "state": "WA",
                "country": "United States",
                "country_code": "us",
                "latitude": 47.7510741,
                "longitude": -120.7401386
            },
            "members_sample": [],
            "type": "group"
        },
        {
            "username": "test0",
            "account_type": "free",
            "profile_image": "https://quizlet.com/a/i/animals/5.dvDy.jpg",
            "id": 6812304,
            "type": "user"
        },
        {
            "id": 1595455,
            "url": "https://quizlet.com/class/1595455/",
            "name": "GA Gymnastics Judges Testing Aids - Floor VP & Shorthand",
            "set_count": 6,
            "user_count": 29,
            "created_date": 1430791087,
            "has_access": false,
            "access_level": "uninvolved",
            "role_level": -3,
            "description": "Flash cards to help GA judges prepare for optional tests (Floor values & shorthand)\r\n- Level 7/8 tests: Focus on A, B, C value parts\r\n- Level 9 test: Focus on A, B, C, D value parts\r\n- Level 10: Know it all\r\n** Focus on common skills. If you've never heard of it, it likely won't show up on the test. **",
            "admin_only": true,
            "is_public": false,
            "has_password": false,
            "member_add_sets": true,
            "school": {
                "name": "GA Judges Education",
                "id": 788037,
                "city": "Atlanta",
                "state": "GA",
                "country": "United States",
                "country_code": "us",
                "latitude": 33.7489954,
                "longitude": -84.3879824
            },
            "members_sample": [],
            "type": "group"
        },
        {
            "id": 825392,
            "url": "https://quizlet.com/class/825392/",
            "name": "HSK Level 3-Chinese Test Prep-Most common 0-600 Chinese words",
            "set_count": 96,
            "user_count": 57,
            "created_date": 0,
            "has_access": false,
            "access_level": "uninvolved",
            "role_level": -3,
            "description": "Chines e Proficiency Test; HSK Speaking Test; Youth Chinese Test; Business Chinese Test; AP Chinese\r\nHow to pass HSK3 by learning 600 basic Chinese words? To get know more on my YouTube channel \"Xiao Min\"\r\nThis flash cards class is for my online students.\r\nGet access: https://goo.gl/nMN1n0\r\n\u26052015/1/1 I have recorded my own voice for those words not clear. Hope you find it's helpful :)\r\nBeing updated...\r\nCopy right \u00a9 2016 - XM Mandarin Online - All Rights Reserved. Reproduction in whole or in part without written permission is prohibited.",
            "admin_only": true,
            "is_public": false,
            "has_password": false,
            "member_add_sets": true,
            "school": {
                "name": "XM Mandarin Online",
                "id": 526929,
                "city": "Beijing",
                "state": null,
                "country": "China",
                "country_code": "cn",
                "latitude": 39.90403,
                "longitude": 116.407526
            },
            "members_sample": [],
            "type": "group"
        },
        {
            "id": 2834084,
            "url": "https://quizlet.com/class/2834084/",
            "name": "TEST",
            "set_count": 1,
            "user_count": 1,
            "created_date": 1465471512,
            "has_access": false,
            "access_level": "uninvolved",
            "role_level": -3,
            "description": "",
            "admin_only": false,
            "is_public": false,
            "has_password": false,
            "member_add_sets": true,
            "school": {
                "name": "YESSI LANGUAGE CENTRE",
                "id": 1300506,
                "city": "Cerdanyola del Vall\u00e8s",
                "state": null,
                "country": "Spain",
                "country_code": "es",
                "latitude": 41.4900419,
                "longitude": 2.1396748
            },
            "members_sample": [],
            "type": "group"
        },
        {
            "username": "testP",
            "account_type": "free",
            "profile_image": "https://quizlet.com/a/i/animals/15.MKRx.jpg",
            "id": 1954864,
            "type": "user"
        },
        {
            "id": 137842189,
            "url": "/137842189/mcmp-650-m1-the-impact-of-cybersecurity-on-society-and-organizations-flash-cards/",
            "title": "MCMP 650 M1 The Impact of Cybersecurity on Society and Organizations",
            "created_by": "wwiddpro",
            "term_count": 7,
            "created_date": 1462806874,
            "modified_date": 1465835974,
            "published_date": 1462809714,
            "has_images": false,
            "subjects": [
    "french",
    "animals"
  ],
            "visibility": "public",
            "editable": "only_me",
            "has_access": true,
            "can_edit": false,
            "description": "",
            "lang_terms": "en",
            "lang_definitions": "en",
            "password_use": 0,
            "password_edit": 0,
            "access_type": 2,
            "creator_id": 29827117,
            "type": "set"
        },
        {
            "id": 1976472,
            "url": "https://quizlet.com/class/1976472/",
            "name": "Testing",
            "set_count": 1,
            "user_count": 1,
            "created_date": 1443982901,
            "has_access": false,
            "access_level": "uninvolved",
            "role_level": -3,
            "description": "",
            "admin_only": false,
            "is_public": false,
            "has_password": false,
            "member_add_sets": true,
            "school": {
                "name": "Wieselgrensskolan",
                "id": 880967,
                "city": "Helsingborg",
                "state": null,
                "country": "Sweden",
                "country_code": "se",
                "latitude": 56.041339149407,
                "longitude": 12.718126777644
            },
            "members_sample": [],
            "type": "group"
        },
        {
            "id": 1977122,
            "url": "https://quizlet.com/class/1977122/",
            "name": "test",
            "set_count": 0,
            "user_count": 1,
            "created_date": 1443991903,
            "has_access": false,
            "access_level": "uninvolved",
            "role_level": -3,
            "description": "",
            "admin_only": false,
            "is_public": false,
            "has_password": false,
            "member_add_sets": true,
            "school": {
                "name": "University of La Verne",
                "id": 16088,
                "city": "La Verne",
                "state": "CA",
                "country": "United States",
                "country_code": "us",
                "latitude": 34.1009023,
                "longitude": -117.77329
            },
            "members_sample": [],
            "type": "group"
        },
        {
            "id": 1961210,
            "url": "https://quizlet.com/class/1961210/",
            "name": "Test",
            "set_count": 4,
            "user_count": 1,
            "created_date": 1443664729,
            "has_access": false,
            "access_level": "uninvolved",
            "role_level": -3,
            "description": "",
            "admin_only": true,
            "is_public": false,
            "has_password": false,
            "member_add_sets": true,
            "school": {
                "name": "Arlington High",
                "id": 18837,
                "city": "Riverside",
                "state": "CA",
                "country": "United States",
                "country_code": "us",
                "latitude": 33.9225156,
                "longitude": -117.4342127
            },
            "members_sample": [],
            "type": "group"
        },
        {
            "username": "Teste",
            "account_type": "free",
            "profile_image": "https://quizlet.com/a/i/animals/8.bape.jpg",
            "id": 6529347,
            "type": "user"
        },
        {
            "id": 1952817,
            "url": "https://quizlet.com/class/1952817/",
            "name": "Test",
            "set_count": 1,
            "user_count": 1,
            "created_date": 1443571616,
            "has_access": false,
            "access_level": "uninvolved",
            "role_level": -3,
            "description": "",
            "admin_only": false,
            "is_public": false,
            "has_password": false,
            "member_add_sets": true,
            "school": {
                "name": "AltSchool",
                "id": 549262,
                "city": "San Francisco",
                "state": "CA",
                "country": "United States",
                "country_code": "us",
                "latitude": 37.7742401,
                "longitude": -122.4105571
            },
            "members_sample": [],
            "type": "group"
        },
        {
            "id": 1956896,
            "url": "https://quizlet.com/class/1956896/",
            "name": "Test",
            "set_count": 1,
            "user_count": 1,
            "created_date": 1443628335,
            "has_access": false,
            "access_level": "uninvolved",
            "role_level": -3,
            "description": "",
            "admin_only": false,
            "is_public": false,
            "has_password": false,
            "member_add_sets": true,
            "school": {
                "name": "Sun Prairie, Wisconsin",
                "id": 450085,
                "city": "Sun Prairie",
                "state": "WI",
                "country": "United States",
                "country_code": "us",
                "latitude": 43.1836046,
                "longitude": -89.2137254
            },
            "members_sample": [],
            "type": "group"
        },
        {
            "id": 2524647,
            "url": "https://quizlet.com/class/2524647/",
            "name": "Test",
            "set_count": 1,
            "user_count": 0,
            "created_date": 1456932189,
            "has_access": false,
            "access_level": "uninvolved",
            "role_level": -3,
            "description": "",
            "admin_only": false,
            "is_public": false,
            "has_password": false,
            "member_add_sets": true,
            "school": {
                "name": "Loranger Middle School",
                "id": 208947,
                "city": "Old Orchard Beach",
                "state": "ME",
                "country": "United States",
                "country_code": "us",
                "latitude": 43.512946,
                "longitude": -70.3922205
            },
            "members_sample": [],
            "type": "group"
        },
        {
            "id": 2477180,
            "url": "https://quizlet.com/class/2477180/",
            "name": "test",
            "set_count": 1,
            "user_count": 1,
            "created_date": 1455837699,
            "has_access": false,
            "access_level": "uninvolved",
            "role_level": -3,
            "description": "",
            "admin_only": false,
            "is_public": false,
            "has_password": false,
            "member_add_sets": true,
            "school": {
                "name": "Davidson High School",
                "id": 794904,
                "city": "Sydney",
                "state": "NSW",
                "country": "Australia",
                "country_code": "au",
                "latitude": -33.7445342,
                "longitude": 151.2057707
            },
            "members_sample": [],
            "type": "group"
        },
        {
            "username": "testb",
            "account_type": "free",
            "profile_image": "https://quizlet.com/a/i/animals/44.BYPX.jpg",
            "id": 1299143,
            "type": "user"
        },
        {
            "id": 927975,
            "url": "https://quizlet.com/class/927975/",
            "name": "test",
            "set_count": 0,
            "user_count": 2,
            "created_date": 0,
            "has_access": false,
            "access_level": "uninvolved",
            "role_level": -3,
            "description": "",
            "admin_only": true,
            "is_public": false,
            "has_password": false,
            "member_add_sets": true,
            "school": {
                "name": "The Barn",
                "id": 393751,
                "city": "Great Falls",
                "state": "VA",
                "country": "United States",
                "country_code": "us",
                "latitude": 39.0328898,
                "longitude": -77.2186618
            },
            "members_sample": [],
            "type": "group"
        }
    ]
}